[
  {
    "grouping":"Cloud",
      "skills":[
          {"name":"Terraform","link":"https://terraform.io"},
          {"name":"AWS","link":"https://aws.amazon.com"},
          {"name":"Azure","link":"https://azure.com"}
      ]
  },
  {
    "grouping":"Containers",
      "skills":[
          {"name":"OpenShift","link":"https://openshift.com"},
          {"name":"Docker","link":"https://docker.com"},
          {"name":"Kubernetes","link":"https://kubernetes.io"} 
      ]
  },
  {
      "grouping":"Architecture",
      "skills":[ "IP Networking", "DNS","Firewalls", "Load Balancing", "Microservices", "Cloud Computing", "Serverless"]
  },
  {
      "grouping":"Languages, Operating Systems & Tools",
      "skills":[ "Python", "Linux", "Bash", "git"]
  }
]
